1
10 50
10 4 434
1 7 8054
3 9 6891
7 2 7275
9 1 8802
1 1 6422
8 2 6876
5 3 6339
7 5 7351
8 8 3075
4 3 7699
2 3 2455
9 7 8398
3 10 2192
7 4 8468
8 7 8407
8 3 3397
2 9 6216
7 5 4120
8 9 6547
7 1 4032
9 3 4293
4 9 3822
10 2 8339
10 1 6855
7 10 521
6 9 3734
10 5 1601
10 2 7204
4 1 2455
1 9 6230
8 3 9228
7 8 2967
4 6 1112
8 10 7639
2 6 581
1 4 3779
9 6 5017
9 8 6327
6 10 7827
4 3 6737
9 8 2649
10 5 1062
1 1 5441
9 1 6538
3 1 4237
4 2 2187
1 5 2700
2 4 6479
4 10 6526
