40
100
0510846094637630441027678645976723632128361118496925957498675490433757571325195745616308071653088432
1217106854341791866407026064508581192325346933309526483746916024529204115716148293812873928949457593
100
1217106854341791866407026064508581192325346933309526483746916024529204115716148293812873928949457593
0510846094637630441027678645976723632128361118496925957498675490433757571325195745616308071653088432
100
2348803561708036165475915231757573340945768947595296948111638212363276795468767201440367364906480150
3957549498293782183928416175114029254206196473846259033396435232911858054606207046681971434586017121
100
3957549498293782183928416175114029254206196473846259033396435232911858054606207046681971434586017121
2348803561708036165475915231757573340945768947595296948111638212363276795468767201440367364906480150
100
8831104142315680445075203301744363045228655574531515155801236541164296407846857499239358783774865595
5168744585577375578090483138060583450240999087860247715001850411083251806275689577740303441302608725
100
5168744585577375578090483138060583450240999087860247715001850411083251806275689577740303441302608725
8831104142315680445075203301744363045228655574531515155801236541164296407846857499239358783774865595
100
5955684773878539329947586487046924611456321085515151354755568225403634471033025705440865132414011388
5278062031443030477759865726081523801140581005177420687809990420543850608313840908755737755854478615
100
5278062031443030477759865726081523801140581005177420687809990420543850608313840908755737755854478615
5955684773878539329947586487046924611456321085515151354755568225403634471033025705440865132414011388
100
2050699666495116786885726837660255282519678447760547815799388934040182055744712233903761884036336987
3699235000189240367446586652246804872390773085251985558712488411679489121680233997925836466557143809
100
3699235000189240367446586652246804872390773085251985558712488411679489121680233997925836466557143809
2050699666495116786885726837660255282519678447760547815799388934040182055744712233903761884036336987
100
7896336304881673093322174475502810404398839975187450677448769152825520667386275886876115946669960502
9083417556646385297993320861219849761148842178555891525803770932784086422566856447630429810005329963
100
9083417556646385297993320861219849761148842178555891525803770932784086422566856447630429810005329963
7896336304881673093322174475502810404398839975187450677448769152825520667386275886876115946669960502
100
9085643009894428944105187219568510154002991672724309688403378941969814909538300229900888707991690488
6746313163201783474914201449379123790078526083960769615209008800455647094577659929265940750255697884
100
6746313163201783474914201449379123790078526083960769615209008800455647094577659929265940750255697884
9085643009894428944105187219568510154002991672724309688403378941969814909538300229900888707991690488
100
8840961997078880099220038359094189691498733048869034272761992004510158659127815014498244989003465809
4887965520570495629299567754907465540088009025169670693806258700973219739441024194743871023613136476
100
4887965520570495629299567754907465540088009025169670693806258700973219739441024194743871023613136476
8840961997078880099220038359094189691498733048869034272761992004510158659127815014498244989003465809
100
3108782932141773301879077340191772523703101871250958563689531917654979146001978406155613318328202699
1823699931366450068487198049086001200866689486559643273537455903666406369037805486188457258309090440
100
1823699931366450068487198049086001200866689486559643273537455903666406369037805486188457258309090440
3108782932141773301879077340191772523703101871250958563689531917654979146001978406155613318328202699
100
9962028238133165516048791006419794567191359863658590521781013073252771910437709781033771412392878013
0440909038527548816845087309636046663095547353723469556849866680021006809408917848600546631399963281
100
0440909038527548816845087309636046663095547353723469556849866680021006809408917848600546631399963281
9962028238133165516048791006419794567191359863658590521781013073252771910437709781033771412392878013
100
8057696462007912296891986697702237305672766926113527404301578266288736511746974670672081161336793976
6028893723551481882781142041552383833139887448590091423101470361426634950064362145329323834653582783
100
6028893723551481882781142041552383833139887448590091423101470361426634950064362145329323834653582783
8057696462007912296891986697702237305672766926113527404301578266288736511746974670672081161336793976
100
6793976331611802760764796471156378826628751034047253116296672765037322077966891986922197002646967508
3872853564383239235412634600594366241630741013241900958447889313383832551402411872881841553273988206
100
3872853564383239235412634600594366241630741013241900958447889313383832551402411872881841553273988206
6793976331611802760764796471156378826628751034047253116296672765037322077966891986922197002646967508
100
5101006114305430174684565631748300398759729625549453327381612166804350290451694025759134617016167464
3196112271372066723776664002534097977840608571007764037350909798097686357352359530137436211251781672
100
3196112271372066723776664002534097977840608571007764037350909798097686357352359530137436211251781672
5101006114305430174684565631748300398759729625549453327381612166804350290451694025759134617016167464
100
4647616107164319575204961540920534086612161837233549455269279578930038471365654864710345034116001015
2761871521126347310359532537536867908979090537304677001758060487797904352004666773276602731722116913
100
2761871521126347310359532537536867908979090537304677001758060487797904352004666773276602731722116913
4647616107164319575204961540920534086612161837233549455269279578930038471365654864710345034116001015
100
1300453925268010797188205270214907979008726364791967093075699712781301829292069936592656818962780930
2863190856080133001157058208194423458299465596039978233646906527493345708403642964560439172722634256
100
2863190856080133001157058208194423458299465596039978233646906527493345708403642964560439172722634256
1300453925268010797188205270214907979008726364791967093075699712781301829292069936592656818962780930
100
0390872698186562956399602929281031872179965703907691974636278009797094120725028817970108625293540031
6524362272719340654692463048075433947256096463328799306955649928543244918028507511003310806580913682
100
6524362272719340654692463048075433947256096463328799306955649928543244918028507511003310806580913682
0390872698186562956399602929281031872179965703907691974636278009797094120725028817970108625293540031
100
0937527373833851938823282939973468689279571053830129083186031975274779862907690315330562854193379184
5387437905264840187707147245592115033077717122607761060938783326840918985282525527482951707681980762
100
5387437905264840187707147245592115033077717122607761060938783326840918985282525527482951707681980762
0937527373833851938823282939973468689279571053830129083186031975274779862907690315330562854193379184
100
4819733914582650335130967092689774725791306813809210383501759729868643799392823288391583383737257390
2670891867071592847255252825898190486233878390601677062217177703305112955427417077810484625097347835
100
2670891867071592847255252825898190486233878390601677062217177703305112955427417077810484625097347835
4819733914582650335130967092689774725791306813809210383501759729868643799392823288391583383737257390
100
6595724965445646302246241043051998285513888448262950652603182529682837812657552428630042005301726076
9802789181431879240070701516731832541423375626474575071852254652552766723008358847723153261471039228
100
9802789181431879240070701516731832541423375626474575071852254652552766723008358847723153261471039228
6595724965445646302246241043051998285513888448262950652603182529682837812657552428630042005301726076
100
6706271035002400368242557562187382869252813062560592628448883155828991503401426422036465445694275956
8229301741623513277488538003276672552564522581705754746265733241452381376151070700429781341819872089
100
8229301741623513277488538003276672552564522581705754746265733241452381376151070700429781341819872089
6706271035002400368242557562187382869252813062560592628448883155828991503401426422036465445694275956
100
5685949025064885901838161057216899335327766289669782686202253865729751764796161584544699546944329015
5771174097256647090557480976093038561343571341725112242647806977677132698428011337569790533934653579
100
5771174097256647090557480976093038561343571341725112242647806977677132698428011337569790533934653579
5685949025064885901838161057216899335327766289669782686202253865729751764796161584544699546944329015
100
5109234496459964454851616974671579275683522026862879669826677235339986127501618381095884605209495865
9753564393350979657331108248962317767796087462422115271431753431658303906790847550907466527904711775
100
9753564393350979657331108248962317767796087462422115271431753431658303906790847550907466527904711775
5109234496459964454851616974671579275683522026862879669826677235339986127501618381095884605209495865
100
9196634452599183035892212016206112145178491852293021048631138145327897163126887947092796979316200998
5585322655902514528249457705291863856722755638911028188243924032901811891021446294834725891869655835
100
5585322655902514528249457705291863856722755638911028188243924032901811891021446294834725891869655835
9196634452599183035892212016206112145178491852293021048631138145327897163126887947092796979316200998
100
8990026139796972907497886213617987235418311368401203922581948715412116026102122985303819952544366919
5385569681985274384926441201981181092304293428818201198365572276583681925077549428254152095562235855
100
5385569681985274384926441201981181092304293428818201198365572276583681925077549428254152095562235855
8990026139796972907497886213617987235418311368401203922581948715412116026102122985303819952544366919
100
0818541797534691740441009547021424549562523491343064395878878801866118178603584651707533648903257490
7654290546009599002006623280010472036478001190243169314247085441378442505382063960538077857652086293
100
7654290546009599002006623280010472036478001190243169314247085441378442505382063960538077857652086293
0818541797534691740441009547021424549562523491343064395878878801866118178603584651707533648903257490
100
0947523098463357071564853068718116681088788785934603431943252659454241207459001440471964357971458180
3926802567587708350693602835052448731445807424139613420911008746302740100823266002009959006450924567
100
3926802567587708350693602835052448731445807424139613420911008746302740100823266002009959006450924567
0947523098463357071564853068718116681088788785934603431943252659454241207459001440471964357971458180
100
0666934548425982149870698707562381359829494353285738728412986154625767917278311730421617519761163630
6652925858599564129498906287956274501354561249085731413343536732803221324309238684724809143454821693
100
6652925858599564129498906287956274501354561249085731413343536732803221324309238684724809143454821693
0666934548425982149870698707562381359829494353285738728412986154625767917278311730421617519761163630
100
0363611679157161240371138727197675264516892148278375823534949289531832657078960789412895248454396660
3961284543419084274868329034231223082376353433141375809421654531054726597826098949214659958585292566
100
3961284543419084274868329034231223082376353433141375809421654531054726597826098949214659958585292566
0363611679157161240371138727197675264516892148278375823534949289531832657078960789412895248454396660
100
4842555655744771796606300540912042121362630303900283614845077962968679316151516317284579266235859562
6074809779855238302457429956569275799551433229865969262179588365043921334990233019217754970872954423
100
6074809779855238302457429956569275799551433229865969262179588365043921334990233019217754970872954423
4842555655744771796606300540912042121362630303900283614845077962968679316151516317284579266235859562
100
2659585326629754827136151516139768692697705484163820093030362631212402190450036066971774475565552484
3244592780794577129103320994331293405638859712629695689223341559975729656599247542038325589779084706
100
3244592780794577129103320994331293405638859712629695689223341559975729656599247542038325589779084706
2659585326629754827136151516139768692697705484163820093030362631212402190450036066971774475565552484
100
0111775669146975329309062461274901544826110153039563807849397933636398884418276039506321713291653329
7337694306016255420619109198071886214109040276450998794092125236506746020303976258361455720484478772
100
7337694306016255420619109198071886214109040276450998794092125236506746020303976258361455720484478772
0111775669146975329309062461274901544826110153039563807849397933636398884418276039506321713291653329
100
9233561923171236059306728144888936363397939487083659303510116284451094721642609039235796419665771110
2778744840275541638526793030206476056325212904978990546720409014126881708919019160245526106034967337
100
2778744840275541638526793030206476056325212904978990546720409014126881708919019160245526106034967337
9233561923171236059306728144888936363397939487083659303510116284451094721642609039235796419665771110
100
6587929700577063916338260552556381161827215027984361251194016287978010574412636562568361864964221311
0442948283057245609666224449062280386877798363826562651198309165393277406077774016973285798191911529
100
0442948283057245609666224449062280386877798363826562651198309165393277406077774016973285798191911529
6587929700577063916338260552556381161827215027984361251194016287978010574412636562568361864964221311
100
1131224694681638652656362144750108797826104911521634897205127281611836552550628336193607750079297856
9251191918975823796104777706047723935619038911562656283638977786830822609444226669065427503828492440
100
9251191918975823796104777706047723935619038911562656283638977786830822609444226669065427503828492440
1131224694681638652656362144750108797826104911521634897205127281611836552550628336193607750079297856
100
2167124306307061494588334937475324195227440162427213492129977383148064461016267437413106126746253367
9607763837546261666339988877535476071114560277632270561152815097476215415307962690133867626996073527
100
9607763837546261666339988877535476071114560277632270561152815097476215415307962690133867626996073527
2167124306307061494588334937475324195227440162427213492129977383148064461016267437413106126746253367
100
7633526476216013147347626101644608413837799212943127242610447225914235747394338854941607036034217612
7253706996267683310962697035145126747905182511650722367720654111706745357788899336661626457383677069
100
7253706996267683310962697035145126747905182511650722367720654111706745357788899336661626457383677069
7633526476216013147347626101644608413837799212943127242610447225914235747394338854941607036034217612
100
4895277756455320460009530315275879473333080668056020932545799333256476208897641687944580189394163789
5260342031983466150309942886078189395926286763943997535413877988102160155185740702901535900834913934
100
5260342031983466150309942886078189395926286763943997535413877988102160155185740702901535900834913934
4895277756455320460009530315275879473333080668056020932545799333256476208897641687944580189394163789
100
9873614939810854497861467988026746523339975452390206508660803333749785725130359000640235546577725984
4393194380095351092070475815510612018897783145357993493676826295939818706882499030516643891302430625
100
4393194380095351092070475815510612018897783145357993493676826295939818706882499030516643891302430625
9873614939810854497861467988026746523339975452390206508660803333749785725130359000640235546577725984
100
3780267303045769411079058367573250105668733804401716848955238632863980906229034523666158747718049727
7082376228607362697754166725289410988353132337585509553246105102230015219024471056845840654281004294
100
7082376228607362697754166725289410988353132337585509553246105102230015219024471056845840654281004294
3780267303045769411079058367573250105668733804401716848955238632863980906229034523666158747718049727
100
7279408177478516663254309226090893682368325598486171044083378665010523757638509701149675403037620873
4924001824560485486501744209125100322015016423559055857332313538890149825276614577962637068226732807
100
4924001824560485486501744209125100322015016423559055857332313538890149825276614577962637068226732807
7279408177478516663254309226090893682368325598486171044083378665010523757638509701149675403037620873
100
8344849979394926155907172468636573290664920417944921527126756838592806635451265175505270112854297625
0837773564635677173744304365088966963848591897325959908473390068875461640871805034646238505058204787
100
0837773564635677173744304365088966963848591897325959908473390068875461640871805034646238505058204787
8344849979394926155907172468636573290664920417944921527126756838592806635451265175505270112854297625
100
5267924582110725055715621545366082958386576217251294497140294660923756368642717095516294939799484438
7874028505058326464305081780461645788600933748099595237981958483696698805634034473717765364653777380
100
7874028505058326464305081780461645788600933748099595237981958483696698805634034473717765364653777380
5267924582110725055715621545366082958386576217251294497140294660923756368642717095516294939799484438
100
6220270809059563080772974036029166302406571245757040938315596558173421373736261878373822157635208017
4166391445801134611763592127640678982050705870619055140451909680061892319689525051263955511992204180
100
4166391445801134611763592127640678982050705870619055140451909680061892319689525051263955511992204180
6220270809059563080772974036029166302406571245757040938315596558173421373736261878373822157635208017
100
7108025367512283738781626373731243718556955138390407575421756042036619206304792770803659509080720226
0814022991155593621505259869132981600869091540415509160785070502898760467212953671164311085441936614
100
0814022991155593621505259869132981600869091540415509160785070502898760467212953671164311085441936614
7108025367512283738781626373731243718556955138390407575421756042036619206304792770803659509080720226
100
5617097907825321709861751193315797249318661800644587241619270489213299311490552809210077240787402143
5121092620033022083520960954127422377134877504001136664488806391484101094787767228040987812734161135
100
5121092620033022083520960954127422377134877504001136664488806391484101094787767228040987812734161135
5617097907825321709861751193315797249318661800644587241619270489213299311490552809210077240787402143
100
3412047870427700129082550941139923129840729161427854460081668139427975133911571689071235287097907165
5311614372187890408227677874901014841936088844666311004057784317732247214590690253802203300262901215
100
5311614372187890408227677874901014841936088844666311004057784317732247214590690253802203300262901215
3412047870427700129082550941139923129840729161427854460081668139427975133911571689071235287097907165
100
8621459458304005211541609079738249221942972763762585300578224754297341295881006153351997189687910282
4869325376888322237871572685116975554387437186144230571931882676640805957116339833368590536702517649
100
4869325376888322237871572685116975554387437186144230571931882676640805957116339833368590536702517649
8621459458304005211541609079738249221942972763762585300578224754297341295881006153351997189687910282
100
2820197869817991533516001885921437924574228750035852673672792491229428379709061451125004038549541268
9467152076350958633389336117595080466762881391750324416817347834555796115862751787322238886735239684
100
9467152076350958633389336117595080466762881391750324416817347834555796115862751787322238886735239684
2820197869817991533516001885921437924574228750035852673672792491229428379709061451125004038549541268
100
7454952183930091884883183327598809719356111099384727400195333478660287379697784454026285589341395197
6369045422753362892782448012567566827554398148881502556053795824611242381206723067808140009777000078
100
6369045422753362892782448012567566827554398148881502556053795824611242381206723067808140009777000078
7454952183930091884883183327598809719356111099384727400195333478660287379697784454026285589341395197
100
7915931439855826204544877969737820668743335910047274839901116539179088957233813884881900393812594547
8700007779000418087603276021832421164285973506552051888418934557286657652108442872982633572245409636
100
8700007779000418087603276021832421164285973506552051888418934557286657652108442872982633572245409636
7915931439855826204544877969737820668743335910047274839901116539179088957233813884881900393812594547
100
5202044940980101092555676205614055341941174189084789864410428144439902438071249281054985506627703893
3554385850745182051132148343406791485122068159910622564897589880574203222670856939106761458939497791
100
3554385850745182051132148343406791485122068159910622564897589880574203222670856939106761458939497791
5202044940980101092555676205614055341941174189084789864410428144439902438071249281054985506627703893
100
3983077266055894501829421708342099344418240144689874809814711491435504165026765552901010890494402025
1977949398541676019396580762223024750889857984652260199518602215841976043438412311502815470585834553
100
1977949398541676019396580762223024750889857984652260199518602215841976043438412311502815470585834553
3983077266055894501829421708342099344418240144689874809814711491435504165026765552901010890494402025
100
9336564744023468562986344338086794991928699070737775086419503634652640003377741078497183968183279784
8829098483723309829515866669500458304475760020958402817564327693889262508806147207487095520607742514
100
8829098483723309829515866669500458304475760020958402817564327693889262508806147207487095520607742514
9336564744023468562986344338086794991928699070737775086419503634652640003377741078497183968183279784
100
4879723818693817948701477733000462564363059146805777370709968291994976808334436892658643204474656339
4152477060255907847027416088052629883967234657182048590200675744038540059666685159289033273848909288
100
4152477060255907847027416088052629883967234657182048590200675744038540059666685159289033273848909288
4879723818693817948701477733000462564363059146805777370709968291994976808334436892658643204474656339
100
8450501764922862374163886162753541777995208707511991669914716481380841688258939996673162774847065635
1383610939336747398886497012747796094873542092834881820424312926979662620241552105245889962022457299
100
1383610939336747398886497012747796094873542092834881820424312926979662620241552105245889962022457299
8450501764922862374163886162753541777995208707511991669914716481380841688258939996673162774847065635
100
5365607484772613766999398528861480831846174199661991157078025997771453572616883614732682294671050548
9927542202699885425012551420262669796292134240281884382902453784906977472107946888937476339390163831
100
9927542202699885425012551420262669796292134240281884382902453784906977472107946888937476339390163831
5365607484772613766999398528861480831846174199661991157078025997771453572616883614732682294671050548
100
3191471077073873793845620398906193088800212422324107836089113638733091628345449096372736389458783697
5567348807426557932855848383451097828873860838735967545699957897220913684980575057639567923718975094
100
5567348807426557932855848383451097828873860838735967545699957897220913684980575057639567923718975094
3191471077073873793845620398906193088800212422324107836089113638733091628345449096372736389458783697
100
7963878549836372736909445438261903378363119806387014232242120088803916098930265483973783707701741913
4905798173297659367505750894863190227987599965457695378380683788287901543838485582397556247088437655
100
4905798173297659367505750894863190227987599965457695378380683788287901543838485582397556247088437655
7963878549836372736909445438261903378363119806387014232242120088803916098930265483973783707701741913
100
2253424565639965229863132673426781642565751276596690809376776544757184966018500536017028062840837555
4508564267545056478514131928987058835635611646233009424185347857095079598764427687785670915572666488
100
4508564267545056478514131928987058835635611646233009424185347857095079598764427687785670915572666488
2253424565639965229863132673426781642565751276596690809376776544757184966018500536017028062840837555
100
5557380482608207106350058106694817574456776739080966956721575652461876243762313689225699365654243522
8846662755190765877867244678959705907587435814249003326461165365388507898291314158746505457624658054
100
8846662755190765877867244678959705907587435814249003326461165365388507898291314158746505457624658054
5557380482608207106350058106694817574456776739080966956721575652461876243762313689225699365654243522
100
9352896181753906276081424501062975883826218460927981786910711492770128579471130840976926822838130134
9780725298356327687698871385894203777917741188412920696387101371560949317965446241201360439228034322
100
9780725298356327687698871385894203777917741188412920696387101371560949317965446241201360439228034322
9352896181753906276081424501062975883826218460927981786910711492770128579471130840976926822838130134
100
4310318382286296790480311749758210772941170196871897290648126283885792601054241806726093571816982539
2234308229340631021426445697139490651731017836960292148811477197773024985831788967867236538925270879
100
2234308229340631021426445697139490651731017836960292148811477197773024985831788967867236538925270879
4310318382286296790480311749758210772941170196871897290648126283885792601054241806726093571816982539
100
0707692953731865150293184323725848699490997248011728997293934380453575149720678315485028791073587982
8711562260116590529749373874548752836508848021143699526377306965238715786219763908324870717578597535
100
8711562260116590529749373874548752836508848021143699526377306965238715786219763908324870717578597535
0707692953731865150293184323725848699490997248011728997293934380453575149720678315485028791073587982
100
2897853701978205845138760279415753540834393927998271108427990949968485273234813920515681373592967070
5357958757170784238093679126875178325696037736259963411208488056382578454783739479250956110622651178
100
5357958757170784238093679126875178325696037736259963411208488056382578454783739479250956110622651178
2897853701978205845138760279415753540834393927998271108427990949968485273234813920515681373592967070
100
8939311031907212985961485593705605284227521528978600778600924598772698508139389972752622505078703253
8657439170645993303988958537956977574726342092190507525496217194860970758535358011789977480931694801
100
8657439170645993303988958537956977574726342092190507525496217194860970758535358011789977480931694801
8939311031907212985961485593705605284227521528978600778600924598772698508139389972752622505078703253
100
3523078705052262572799839318058962778954290068770068798251257224825065073955841695892127091301139398
1084961390847799871108535358570790684917126945257050912902436274757796597358598893033995460719347568
100
1084961390847799871108535358570790684917126945257050912902436274757796597358598893033995460719347568
3523078705052262572799839318058962778954290068770068798251257224825065073955841695892127091301139398
100
8152490888403637430607775974712571809952816070405915419663343510386694952766296127662915552883642101
6006373440027869794151242589854180835239967946958502382469433078323016488471220161165658743555030990
100
6006373440027869794151242589854180835239967946958502382469433078323016488471220161165658743555030990
8152490888403637430607775974712571809952816070405915419663343510386694952766296127662915552883642101
100
1012463882555192667216926672594966830153433669145195040706182599081752174795777060347363048880942518
0990305553478565611610221748846103238703349642832058596497699325380814589852421514979687200443736006
100
0990305553478565611610221748846103238703349642832058596497699325380814589852421514979687200443736006
1012463882555192667216926672594966830153433669145195040706182599081752174795777060347363048880942518
100
1665418191540416584873969698272714629573994061650744997122669306233852357344479259296472319175972576
7481459053754716373564726157284145769486722171965969403112936845293909831283507129031632324849019641
100
7481459053754716373564726157284145769486722171965969403112936845293909831283507129031632324849019641
1665418191540416584873969698272714629573994061650744997122669306233852357344479259296472319175972576
100
6752795719132746929529744437532583326039662217994470561604993759264172728969693784856140451918145661
1469109484232361309217053821389093925486392113049695691712276849675414827516274653736174573509541847
100
1469109484232361309217053821389093925486392113049695691712276849675414827516274653736174573509541847
6752795719132746929529744437532583326039662217994470561604993759264172728969693784856140451918145661
100
2250378226112902301367261022336747213299627511216043682355389054085969856010219543020089621019267319
2279582076988176215286313375352314770712280370423865766588983326090325156677573967649829277720934677
100
2279582076988176215286313375352314770712280370423865766588983326090325156677573967649829277720934677
2250378226112902301367261022336747213299627511216043682355389054085969856010219543020089621019267319
100
9137629101269800203459120106589695804509835532863406121157269923127476332201627631032092116228730522
7764390277729289467693757766515230906233898856675683240730822170774132535733136825126718896702859722
100
7764390277729289467693757766515230906233898856675683240730822170774132535733136825126718896702859722
9137629101269800203459120106589695804509835532863406121157269923127476332201627631032092116228730522
100
4519489751164790417863081352804547781123515403024304477879722970803206719990162067999977128734122318
2214917461063392788294330422620047905410979296522344327681141287269137493290947234389464216966104728
100
2214917461063392788294330422620047905410979296522344327681141287269137493290947234389464216966104728
4519489751164790417863081352804547781123515403024304477879722970803206719990162067999977128734122318
100
8132214378217799997602610999176023080792279787744034203045153211877454082531803687140974611579849154
8274016696124649834327490923947319627821411867234432256929790145097400262240334928872933601647194122
100
8274016696124649834327490923947319627821411867234432256929790145097400262240334928872933601647194122
8132214378217799997602610999176023080792279787744034203045153211877454082531803687140974611579849154
100
3266636934380392324800035255810208535592123475667638675728181332898228114103026491070123738316900936
6871857261222526330631503363348643483004175190371132168106183223118149105872100909262943470164740811
100
6871857261222526330631503363348643483004175190371132168106183223118149105872100909262943470164740811
3266636934380392324800035255810208535592123475667638675728181332898228114103026491070123738316900936
100
6390096138373210701946203014118228982331818275768367665743212955358020185525300084232930834396366623
1180474610743492629090012785019418113223816018612311730915714003843468433633051360336252221627581786
100
1180474610743492629090012785019418113223816018612311730915714003843468433633051360336252221627581786
6390096138373210701946203014118228982331818275768367665743212955358020185525300084232930834396366623
100
0726581762486342398557875947106232062806059756780427529622068600677299080477381922293284390907495193
2103486232383364486813773531085527177742589279700237735491072136869523190944123625927463186567364591
100
2103486232383364486813773531085527177742589279700237735491072136869523190944123625927463186567364591
0726581762486342398557875947106232062806059756780427529622068600677299080477381922293284390907495193
100
3915947090934823922291837740809927760068602269257240876579506082602326017495787558932436842671856270
1954637656813647295263214490913259686312701945377320079729852477717255801353773186844633832326843012
100
1954637656813647295263214490913259686312701945377320079729852477717255801353773186844633832326843012
3915947090934823922291837740809927760068602269257240876579506082602326017495787558932436842671856270
100
2776541633377879445476338278601747571574760211788198480114966197216622504913738017078649903131981003
7441874266571480805955046809164528889736974831700234297784326014991993976574293717094026555214043721
100
7441874266571480805955046809164528889736974831700234297784326014991993976574293717094026555214043721
2776541633377879445476338278601747571574760211788198480114966197216622504913738017078649903131981003
100
3001891313099468707108373194052266127916694110848918871120674751757471068728336745449787733361456772
1273404125556204907173924756793991994106234877924320071384796379888254619086405595080841756624781447
100
1273404125556204907173924756793991994106234877924320071384796379888254619086405595080841756624781447
3001891313099468707108373194052266127916694110848918871120674751757471068728336745449787733361456772
